{
	"parent": "builtin/entity",
	"display": {
		"gui": {
			"rotation": [ 180, 0, 45 ],
			"translation": [ -3.5, -3.5, 0],
			"scale":[ 0.7, 0.7, 0.7 ]
		},
		"ground": {
			"rotation": [ 0, 0, 0 ],
			"translation": [ 0, 12.7, -1.1],
			"scale":[ 1, 1, 1 ]
		},
		"head": {
			"rotation": [ 0, 0, 0 ],
			"translation": [ 0, 0, 0],
			"scale":[ 1, 1, 1 ]
		},
		"fixed": {
			"rotation": [ 0, 0, 180 ],
			"translation": [ 0, -3, -1],
			"scale":[ 0.7, 0.7, 0.7 ]
		},
		"thirdperson_righthand": {
			"rotation": [ 180, -90, 0 ],
			"translation": [ 0.5, -4, 0],
			"scale":[ 0.7, 0.7, 0.7 ]
		},
		"thirdperson_lefthand": {
			"rotation": [ 180, 90, 0 ],
			"translation": [ -0.9, -4, 0],
			"scale":[ 0.7, 0.7, 0.7 ]
		},
		"firstperson_righthand": {
			"rotation": [ 180, -100, 0 ],
			"translation": [ 0, 0, 0],
			"scale":[ 0.5, 0.5, 0.5 ]
		},
		"firstperson_lefthand": {
			"rotation": [ 180, 86, 0 ],
			"translation": [ -1.5, 0, 0],
			"scale":[ 0.5, 0.5, 0.5 ]
		}
	}
}
